<?xml version="1.0" encoding="UTF-8"?>
<session version="1.0">
<refactoring accessors="true" comment="Delete element from project &apos;BOMWS&apos;&#x0D;&#x0A;- Original project: &apos;BOMWS&apos;&#x0D;&#x0A;- Original element: &apos;BOMCommon.jar&apos;" description="Delete element" element1="WebContent/WEB-INF/lib/BOMCommon.jar" elements="0" flags="589830" id="org.eclipse.jdt.ui.delete" resources="1" stamp="1389825611278" subPackages="false" version="1.0"/>
</session>